<svg xmlns="http://www.w3.org/2000/svg" width="333" height="250" viewBox="0 0 333 250" fill="none">
<path d="M140.883 176.01C154.017 189.144 175.313 189.144 188.447 176.01C201.582 162.875 201.582 141.58 188.447 128.445C175.313 115.311 154.017 115.311 140.883 128.445C127.748 141.58 127.748 162.875 140.883 176.01Z" fill="#078FE2"/>
<path d="M197.558 184.052C190.728 190.909 181.819 195.311 172.223 196.57C173.252 197.561 174.58 198.184 176.001 198.339L208.26 202.038C209.244 202.152 210.24 202.041 211.176 201.715C212.111 201.389 212.961 200.856 213.661 200.155C214.361 199.455 214.894 198.606 215.22 197.67C215.546 196.735 215.657 195.738 215.544 194.754L211.841 162.492C211.683 161.072 211.061 159.744 210.072 158.714C208.814 168.311 204.414 177.221 197.558 184.052Z" fill="#078FE2"/>
<path d="M131.95 118.623C138.781 111.766 147.689 107.364 157.285 106.105C156.258 105.112 154.928 104.489 153.507 104.336L121.249 100.637C120.265 100.523 119.268 100.634 118.332 100.96C117.397 101.286 116.548 101.819 115.847 102.52C115.147 103.22 114.614 104.069 114.288 105.005C113.962 105.94 113.851 106.937 113.964 107.921L117.667 140.176C117.821 141.597 118.442 142.927 119.433 143.957C120.695 134.362 125.096 125.454 131.95 118.623Z" fill="#078FE2"/>
<path d="M131.95 184.052C125.094 177.222 120.692 168.314 119.433 158.718C118.442 159.748 117.821 161.078 117.667 162.499L113.964 194.754C113.851 195.738 113.961 196.735 114.287 197.67C114.614 198.606 115.147 199.455 115.847 200.156C116.547 200.856 117.397 201.389 118.332 201.715C119.267 202.041 120.264 202.152 121.248 202.038L153.507 198.339C154.928 198.186 156.257 197.563 157.285 196.57C147.689 195.311 138.78 190.909 131.95 184.052Z" fill="#078FE2"/>
<path d="M197.558 118.623C204.415 125.453 208.816 134.362 210.076 143.957C211.066 142.926 211.689 141.597 211.848 140.176L215.533 107.932C215.647 106.948 215.536 105.951 215.21 105.015C214.884 104.08 214.351 103.231 213.65 102.53C212.95 101.83 212.101 101.297 211.165 100.971C210.23 100.645 209.233 100.534 208.249 100.647L175.997 104.346C174.576 104.504 173.246 105.127 172.216 106.119C181.813 107.373 190.724 111.77 197.558 118.623Z" fill="#078FE2"/>
<path d="M168.138 168.913H161.645V143.693H153.329V138.289H176.454V143.693H168.138V168.913Z" fill="white"/>
<path d="M62.345 62.3415C55.5149 69.1982 46.6064 73.5999 37.0106 74.8591C38.0421 75.8493 39.3708 76.4724 40.7916 76.6321L73.0363 80.3169C74.0203 80.4302 75.0171 80.3197 75.9524 79.9936C76.8877 79.6676 77.7373 79.1345 78.4376 78.4341C79.138 77.7337 79.6711 76.8842 79.9972 75.9489C80.3232 75.0136 80.4337 74.0168 80.3205 73.0328L76.6214 40.7809C76.4638 39.3595 75.8405 38.0301 74.8484 37C73.5946 46.5965 69.1979 55.5075 62.345 62.3415Z" fill="#F2BF52"/>
<circle cx="33.5145" cy="33.5145" r="33.5145" fill="#F2BF52"/>
<path d="M40.2592 47.7246L38.2609 41.1642H28.2128L26.2145 47.7246H19.918L29.6456 20.05H36.7904L46.5557 47.7246H40.2592ZM36.8658 36.2627C35.0183 30.3181 33.9752 26.9561 33.7364 26.1769C33.5102 25.3977 33.3468 24.7819 33.2463 24.3294C32.8315 25.9381 31.6439 29.9159 29.6833 36.2627H36.8658Z" fill="white"/>
<path d="M270.961 62.345C264.104 55.515 259.702 46.6064 258.443 37.0107C257.453 38.0421 256.83 39.3708 256.67 40.7916L252.985 73.0363C252.872 74.0203 252.983 75.0172 253.309 75.9525C253.635 76.8878 254.168 77.7373 254.868 78.4377C255.568 79.1381 256.418 79.6712 257.353 79.9972C258.289 80.3232 259.285 80.4337 260.269 80.3205L292.521 76.6214C293.943 76.4639 295.272 75.8405 296.302 74.8485C286.706 73.5946 277.795 69.1979 270.961 62.345Z" fill="#56BFC9"/>
<circle cx="299.486" cy="33.5145" r="33.5145" fill="#56BFC9"/>
<path d="M290.252 20.1632H298.83C302.739 20.1632 305.573 20.7224 307.332 21.841C309.104 22.947 309.99 24.7128 309.99 27.1384C309.99 28.7848 309.601 30.1358 308.822 31.1915C308.055 32.2472 307.031 32.8819 305.749 33.0956V33.2841C307.496 33.6737 308.752 34.4026 309.519 35.4709C310.298 36.5392 310.688 37.9594 310.688 39.7314C310.688 42.245 309.777 44.2056 307.954 45.6132C306.145 47.0208 303.681 47.7246 300.564 47.7246H290.252V20.1632ZM296.097 31.0784H299.49C301.073 31.0784 302.217 30.8333 302.921 30.3432C303.637 29.853 303.995 29.0424 303.995 27.9113C303.995 26.8556 303.606 26.1015 302.827 25.6491C302.06 25.1841 300.841 24.9515 299.169 24.9515H296.097V31.0784ZM296.097 35.716V42.8986H299.905C301.513 42.8986 302.701 42.5906 303.468 41.9748C304.234 41.359 304.618 40.4164 304.618 39.147C304.618 36.8597 302.984 35.716 299.716 35.716H296.097Z" fill="white"/>
</svg>