<svg xmlns="http://www.w3.org/2000/svg" width="150" height="150" viewBox="0 0 150 150" fill="none">
<circle cx="75" cy="75" r="75" fill="#0786E2"/>
<g clip-path="url(#clip0)">
<path d="M58.7267 39.6833C60.7131 39.6833 62.6548 40.2724 64.3064 41.3759C65.9581 42.4795 67.2453 44.0481 68.0055 45.8833C68.7657 47.7184 68.9645 49.7378 68.577 51.686C68.1895 53.6342 67.233 55.4238 65.8284 56.8284C64.4238 58.233 62.6342 59.1895 60.686 59.577C58.7378 59.9645 56.7184 59.7657 54.8833 59.0055C53.0481 58.2453 51.4795 56.9581 50.3759 55.3064C49.2724 53.6548 48.6833 51.7131 48.6833 49.7267C48.6833 47.063 49.7415 44.5084 51.625 42.625C53.5084 40.7415 56.063 39.6833 58.7267 39.6833ZM41.2433 67.21C41.91 67.8767 44.0833 69.5433 44.6833 69.5067C45.1267 69.48 47.5567 68.45 48.7933 67.9133C50.0941 68.6242 51.4676 69.193 52.89 69.61C53.3867 70.8667 54.3733 73.31 54.67 73.6433C55.0667 74.0933 57.7733 74.4533 58.7267 74.4533C59.68 74.4533 62.3933 74.0933 62.7833 73.6433C63.08 73.31 64.0667 70.8667 64.5633 69.61C65.9881 69.1934 67.3638 68.6246 68.6667 67.9133C69.9033 68.45 72.3333 69.48 72.7733 69.5067C73.3733 69.5433 75.5433 67.8867 76.2167 67.21C76.89 66.5333 78.55 64.3667 78.5133 63.7667C78.4867 63.3267 77.4567 60.8967 76.92 59.66C77.6308 58.3592 78.1997 56.9858 78.6167 55.5633C79.8733 55.0667 82.3167 54.0767 82.65 53.7833C83.1 53.3867 83.46 50.68 83.46 49.7267C83.46 48.7733 83.1 46.06 82.65 45.67C82.3167 45.3733 79.8733 44.3867 78.6167 43.89C78.1997 42.4676 77.6308 41.0941 76.92 39.7933C77.4567 38.5533 78.4867 36.1267 78.5133 35.6867C78.55 35.0833 76.8933 32.9167 76.2167 32.2433C75.54 31.57 73.3733 29.91 72.7733 29.9467C72.3333 29.9733 69.8967 31 68.6667 31.54C67.3659 30.8292 65.9925 30.2603 64.57 29.8433C64.0733 28.5867 63.0867 26.1433 62.79 25.81C62.3867 25.36 59.6667 25 58.7267 25C57.7867 25 55.0667 25.36 54.6667 25.81C54.37 26.1433 53.3833 28.5867 52.8867 29.8433C51.4642 30.2603 50.0908 30.8292 48.79 31.54C47.5533 31.0033 45.1233 29.9733 44.68 29.9467C44.08 29.91 41.9133 31.5667 41.24 32.2433C40.5667 32.92 38.9067 35.0867 38.9433 35.6833C38.97 36.1267 40 38.5567 40.5367 39.7933C39.8258 41.0941 39.257 42.4676 38.84 43.89C37.5867 44.3867 35.1433 45.3733 34.81 45.6667C34.36 46.0667 34 48.7733 34 49.7267C34 50.68 34.36 53.3933 34.81 53.7833C35.1433 54.0767 37.5867 55.0667 38.8433 55.5633C39.2599 56.9881 39.8287 58.3638 40.54 59.6667C40.0033 60.9033 38.9733 63.3333 38.9467 63.7733C38.91 64.3733 40.5667 66.5433 41.2433 67.2167V67.21Z" fill="white"/>
<path d="M99.0299 85.26C97.0435 85.26 95.1017 84.671 93.4501 83.5674C91.7985 82.4638 90.5112 80.8953 89.7511 79.0601C88.9909 77.2249 88.792 75.2055 89.1795 73.2573C89.5671 71.3091 90.5236 69.5195 91.9282 68.115C93.3328 66.7104 95.1223 65.7538 97.0705 65.3663C99.0187 64.9788 101.038 65.1777 102.873 65.9378C104.708 66.698 106.277 67.9853 107.381 69.6369C108.484 71.2885 109.073 73.2303 109.073 75.2167C109.073 77.8803 108.015 80.4349 106.132 82.3184C104.248 84.2019 101.694 85.26 99.0299 85.26ZM122.947 71.1567C122.613 70.8633 120.17 69.8767 118.913 69.38C118.496 67.9576 117.927 66.5841 117.217 65.2833C117.753 64.0433 118.783 61.6167 118.81 61.1733C118.847 60.5733 117.19 58.4067 116.513 57.73C115.837 57.0533 113.67 55.3967 113.07 55.4367C112.63 55.4633 110.2 56.4933 108.963 57.03C107.663 56.3178 106.289 55.749 104.867 55.3333C104.37 54.0767 103.383 51.6333 103.087 51.3C102.69 50.85 99.9832 50.49 99.0299 50.49C98.0766 50.49 95.3632 50.85 94.9732 51.3C94.6766 51.6333 93.6899 54.0767 93.1932 55.3333C91.7703 55.749 90.3967 56.3178 89.0966 57.03C87.8599 56.4933 85.4299 55.4633 84.9866 55.4367C84.3899 55.3967 82.2199 57.0567 81.5466 57.7333C80.8732 58.41 79.2132 60.5733 79.2499 61.1733C79.2766 61.6167 80.3066 64.0433 80.8432 65.2833C80.1324 66.5841 79.5636 67.9576 79.1466 69.38C77.8899 69.8767 75.4466 70.8633 75.1132 71.1567C74.6632 71.5567 74.3032 74.2633 74.3032 75.2167C74.3032 76.17 74.6632 78.8833 75.1132 79.2733C75.4466 79.5667 77.8899 80.5567 79.1466 81.0533C79.5636 82.4747 80.1325 83.847 80.8432 85.1467C80.3066 86.3867 79.2766 88.8133 79.2499 89.2567C79.2132 89.8567 80.8699 92.0267 81.5466 92.7C82.2232 93.3733 84.3899 95.0333 84.9866 94.9967C85.4299 94.97 87.8599 93.94 89.0966 93.4033C90.3973 94.1142 91.7708 94.683 93.1932 95.1C93.6899 96.3567 94.6766 98.8 94.9732 99.1333C95.3699 99.5833 98.0766 99.9433 99.0299 99.9433C99.9832 99.9433 102.697 99.5833 103.087 99.1333C103.383 98.8 104.37 96.3533 104.867 95.1C106.289 94.683 107.662 94.1142 108.963 93.4033C110.2 93.94 112.63 94.97 113.07 94.9967C113.67 95.0333 115.84 93.3767 116.513 92.7C117.187 92.0233 118.847 89.8567 118.81 89.2567C118.783 88.8133 117.753 86.3867 117.217 85.1467C117.928 83.8462 118.497 82.4726 118.913 81.05C120.17 80.5533 122.613 79.5667 122.947 79.2733C123.397 78.8767 123.757 76.17 123.757 75.2167C123.757 74.2633 123.397 71.55 122.947 71.1567Z" fill="white"/>
<path d="M64.2801 112.19C62.5684 112.513 60.7992 112.322 59.1964 111.639C57.5935 110.957 56.2291 109.815 55.2755 108.357C54.3219 106.899 53.8221 105.191 53.8393 103.449C53.8565 101.707 54.39 100.01 55.3721 98.5711C56.3543 97.1323 57.7411 96.0172 59.3571 95.3667C60.9731 94.7162 62.7457 94.5596 64.4507 94.9167C66.1557 95.2737 67.7165 96.1284 68.9357 97.3727C70.155 98.6169 70.9778 100.195 71.3001 101.907C71.5145 103.043 71.503 104.21 71.2662 105.342C71.0295 106.474 70.5721 107.548 69.9202 108.502C69.2683 109.457 68.4347 110.275 67.467 110.907C66.4992 111.54 65.4163 111.976 64.2801 112.19ZM82.5901 96.1567C82.2568 95.9567 79.9868 95.49 78.8235 95.28C78.2366 94.1213 77.5245 93.0304 76.7001 92.0267C76.9635 90.8733 77.4568 88.6133 77.4068 88.2267C77.3435 87.7033 75.5601 86.1067 74.8701 85.6333C74.1801 85.16 72.0401 84.0867 71.5368 84.2167C71.1601 84.31 69.2368 85.5933 68.2568 86.2567C67.0211 85.8569 65.746 85.5909 64.4535 85.4633C63.8235 84.4633 62.5735 82.5133 62.2668 82.2767C61.8501 81.9433 59.4601 82.08 58.6368 82.2367C57.8135 82.3933 55.5435 83.14 55.2735 83.5933C55.0735 83.9267 54.6068 86.2 54.3968 87.36C53.2397 87.9497 52.1491 88.6615 51.1435 89.4833C49.9901 89.2233 47.7301 88.73 47.3435 88.7767C46.8235 88.8433 45.2235 90.6233 44.7535 91.3167C44.2835 92.01 43.2035 94.1433 43.3335 94.65C43.4301 95.0267 44.7101 96.9533 45.3768 97.9333C44.9747 99.1675 44.7076 100.442 44.5801 101.733C43.5801 102.363 41.6301 103.617 41.3935 103.923C41.0601 104.34 41.1968 106.73 41.3535 107.55C41.5101 108.37 42.2568 110.643 42.7101 110.913C43.0435 111.113 45.3168 111.58 46.4768 111.793C47.067 112.949 47.7788 114.039 48.6001 115.043C48.3401 116.197 47.8468 118.457 47.8968 118.843C47.9601 119.367 49.7401 120.963 50.4335 121.437C51.1268 121.91 53.2601 122.983 53.7668 122.857C54.1468 122.76 56.0701 121.477 57.0501 120.813C58.2848 121.213 59.5588 121.479 60.8501 121.607C61.4835 122.607 62.7335 124.557 63.0401 124.797C63.4568 125.13 65.8468 124.99 66.6668 124.837C67.4868 124.683 69.7635 123.93 70.0335 123.477C70.2335 123.143 70.7001 120.873 70.9101 119.71C72.0666 119.121 73.1562 118.409 74.1601 117.587C75.3168 117.847 77.5735 118.343 77.9601 118.293C78.4835 118.227 80.0835 116.447 80.5535 115.757C81.0235 115.067 82.1035 112.927 81.9735 112.423C81.8768 112.047 80.5935 110.12 79.9301 109.14C80.3331 107.906 80.5991 106.632 80.7235 105.34C81.7235 104.71 83.6735 103.46 83.9135 103.15C84.2468 102.737 84.1068 100.347 83.9535 99.5233C83.8001 98.7 83.0468 96.43 82.5935 96.16L82.5901 96.1567Z" fill="white"/>
</g>
<defs>
<clipPath id="clip0">
<rect width="89.7567" height="100" fill="white" transform="translate(34 25)"/>
</clipPath>
</defs>
</svg>